^D:\KULIAH IKI\PROGRAMMING\PROGRAM 4\SNAKEGAME\SNAKEGAME\SNAKEGAME.CPP
/c /ZI /JMC /nologo /W3 /WX- /diagnostics:classic /sdl /Od /Oy- /D WIN32 /D _DEBUG /D _CONSOLE /D _UNICODE /D UNICODE /Gm- /EHsc /RTC1 /MDd /GS /fp:precise /permissive- /Zc:wchar_t /Zc:forScope /Zc:inline /Fo"DEBUG\\" /Fd"DEBUG\VC141.PDB" /Gd /TP /analyze- /FC D:\KULIAH IKI\PROGRAMMING\PROGRAM 4\SNAKEGAME\SNAKEGAME\SNAKEGAME.CPP
^D:\KULIAH IKI\PROGRAMMING\PROGRAM 4\GAMEIKI\GAMEIKI\PCH.CPP
/c /ZI /JMC /nologo /W3 /WX- /diagnostics:classic /sdl /Od /Oy- /D WIN32 /D _DEBUG /D _CONSOLE /D _UNICODE /D UNICODE /Gm- /EHsc /RTC1 /MDd /GS /fp:precise /permissive- /Zc:wchar_t /Zc:forScope /Zc:inline /Yc"pch.h" /Fp"DEBUG\GAMEIKI.PCH" /Fo"DEBUG\\" /Fd"DEBUG\VC141.PDB" /Gd /TP /analyze- /FC D:\KULIAH IKI\PROGRAMMING\PROGRAM 4\GAMEIKI\GAMEIKI\PCH.CPP
^D:\KULIAH IKI\PROGRAMMING\PROGRAM 4\GAMEIKI\GAMEIKI\OBJECT.CPP
/c /ZI /JMC /nologo /W3 /WX- /diagnostics:classic /sdl /Od /Oy- /D WIN32 /D _DEBUG /D _CONSOLE /D _UNICODE /D UNICODE /Gm- /EHsc /RTC1 /MDd /GS /fp:precise /permissive- /Zc:wchar_t /Zc:forScope /Zc:inline /Fo"DEBUG\\" /Fd"DEBUG\VC141.PDB" /Gd /TP /analyze- /FC D:\KULIAH IKI\PROGRAMMING\PROGRAM 4\GAMEIKI\GAMEIKI\OBJECT.CPP
^D:\KULIAH IKI\PROGRAMMING\PROGRAM 4\GAMEIKI\GAMEIKI\OBSTACLE.CPP
/c /ZI /JMC /nologo /W3 /WX- /diagnostics:classic /sdl /Od /Oy- /D WIN32 /D _DEBUG /D _CONSOLE /D _UNICODE /D UNICODE /Gm- /EHsc /RTC1 /MDd /GS /fp:precise /permissive- /Zc:wchar_t /Zc:forScope /Zc:inline /Fo"DEBUG\\" /Fd"DEBUG\VC141.PDB" /Gd /TP /analyze- /FC D:\KULIAH IKI\PROGRAMMING\PROGRAM 4\GAMEIKI\GAMEIKI\OBSTACLE.CPP
^D:\KULIAH IKI\PROGRAMMING\PROGRAM 4\GAMEIKI\GAMEIKI\POSITION.CPP
/c /ZI /JMC /nologo /W3 /WX- /diagnostics:classic /sdl /Od /Oy- /D WIN32 /D _DEBUG /D _CONSOLE /D _UNICODE /D UNICODE /Gm- /EHsc /RTC1 /MDd /GS /fp:precise /permissive- /Zc:wchar_t /Zc:forScope /Zc:inline /Fo"DEBUG\\" /Fd"DEBUG\VC141.PDB" /Gd /TP /analyze- /FC D:\KULIAH IKI\PROGRAMMING\PROGRAM 4\GAMEIKI\GAMEIKI\POSITION.CPP
^D:\KULIAH IKI\PROGRAMMING\PROGRAM 4\GAMEIKI\GAMEIKI\BOARD.CPP
/c /ZI /JMC /nologo /W3 /WX- /diagnostics:classic /sdl /Od /Oy- /D WIN32 /D _DEBUG /D _CONSOLE /D _UNICODE /D UNICODE /Gm- /EHsc /RTC1 /MDd /GS /fp:precise /permissive- /Zc:wchar_t /Zc:forScope /Zc:inline /Fo"DEBUG\\" /Fd"DEBUG\VC141.PDB" /Gd /TP /analyze- /FC D:\KULIAH IKI\PROGRAMMING\PROGRAM 4\GAMEIKI\GAMEIKI\BOARD.CPP
^D:\KULIAH IKI\PROGRAMMING\PROGRAM 4\GAMEIKI\GAMEIKI\GAMEIKI.CPP
/c /ZI /JMC /nologo /W3 /WX- /diagnostics:classic /sdl /Od /Oy- /D WIN32 /D _DEBUG /D _CONSOLE /D _UNICODE /D UNICODE /Gm- /EHsc /RTC1 /MDd /GS /fp:precise /permissive- /Zc:wchar_t /Zc:forScope /Zc:inline /Fo"DEBUG\\" /Fd"DEBUG\VC141.PDB" /Gd /TP /analyze- /FC D:\KULIAH IKI\PROGRAMMING\PROGRAM 4\GAMEIKI\GAMEIKI\GAMEIKI.CPP
^D:\KULIAH IKI\PROGRAMMING\PROGRAM 4\GAMEIKI\GAMEIKI\PLAYER.CPP
/c /ZI /JMC /nologo /W3 /WX- /diagnostics:classic /sdl /Od /Oy- /D WIN32 /D _DEBUG /D _CONSOLE /D _UNICODE /D UNICODE /Gm- /EHsc /RTC1 /MDd /GS /fp:precise /permissive- /Zc:wchar_t /Zc:forScope /Zc:inline /Fo"DEBUG\\" /Fd"DEBUG\VC141.PDB" /Gd /TP /analyze- /FC D:\KULIAH IKI\PROGRAMMING\PROGRAM 4\GAMEIKI\GAMEIKI\PLAYER.CPP
^D:\KULIAH IKI\PROGRAMMING\PROGRAM 4\GAMEIKI\GAMEIKI\GAMERULES.CPP
/c /ZI /JMC /nologo /W3 /WX- /diagnostics:classic /sdl /Od /Oy- /D WIN32 /D _DEBUG /D _CONSOLE /D _UNICODE /D UNICODE /Gm- /EHsc /RTC1 /MDd /GS /fp:precise /permissive- /Zc:wchar_t /Zc:forScope /Zc:inline /Fo"DEBUG\\" /Fd"DEBUG\VC141.PDB" /Gd /TP /analyze- /FC D:\KULIAH IKI\PROGRAMMING\PROGRAM 4\GAMEIKI\GAMEIKI\GAMERULES.CPP
