^D:\KULIAH IKI\PROGRAMMING\PROGRAM 4\GAMEIKI\GAMEIKI\DEBUG\BOARD.OBJ|D:\KULIAH IKI\PROGRAMMING\PROGRAM 4\GAMEIKI\GAMEIKI\DEBUG\GAMEIKI.OBJ|D:\KULIAH IKI\PROGRAMMING\PROGRAM 4\GAMEIKI\GAMEIKI\DEBUG\GAMERULES.OBJ|D:\KULIAH IKI\PROGRAMMING\PROGRAM 4\GAMEIKI\GAMEIKI\DEBUG\OBJECT.OBJ|D:\KULIAH IKI\PROGRAMMING\PROGRAM 4\GAMEIKI\GAMEIKI\DEBUG\OBSTACLE.OBJ|D:\KULIAH IKI\PROGRAMMING\PROGRAM 4\GAMEIKI\GAMEIKI\DEBUG\PCH.OBJ|D:\KULIAH IKI\PROGRAMMING\PROGRAM 4\GAMEIKI\GAMEIKI\DEBUG\PLAYER.OBJ|D:\KULIAH IKI\PROGRAMMING\PROGRAM 4\GAMEIKI\GAMEIKI\DEBUG\POSITION.OBJ
D:\KULIAH IKI\PROGRAMMING\PROGRAM 4\GAMEIKI\DEBUG\GAMEIKI.EXE
D:\KULIAH IKI\PROGRAMMING\PROGRAM 4\GAMEIKI\DEBUG\GAMEIKI.ILK
D:\KULIAH IKI\PROGRAMMING\PROGRAM 4\GAMEIKI\DEBUG\GAMEIKI.PDB
